Spatial R course - 4
…
Lets first load the package.

library(taxize)

7. Finding correct taxon name for database

Lets say we have a list of species names and we want to know if our species are spelled correctly.

Here, we are searching for two misspelled species names:

temp <- gnr_resolve(names = c("Pantera tigrsi", "Homo saapiens"))
temp

## # A tibble: 56 x 5
##    user_supplied_na submitted_name matched_name  data_source_title   score
##  * <chr>             <chr>          <chr>         <chr>               <dbl>
##  1 Pantera tigrsi    Pantera tigrsi Panthera tig Catalogue of Life    0.75
##  2 Pantera tigrsi    Pantera tigrsi Panthera tig ITIS                 0.75
##  3 Pantera tigrsi    Pantera tigrsi Panthera tig NCBI                 0.75
##  4 Pantera tigrsi    Pantera tigrsi Panthera tig Union 4              0.75
##  5 Pantera tigrsi    Pantera tigrsi Panthera tig The Interim Regist  0.75
##  6 Pantera tigrsi    Pantera tigrsi Panthera tig Freebase             0.75
##  7 Pantera tigrsi    Pantera tigrsi Panthera tig GBIF Backbone Taxo  0.75
##  8 Pantera tigrsi    Pantera tigrsi Panthera tig Encyclopedia of Li  0.75
##  9 Pantera tigrsi    Pantera tigrsi Panthera tig TaxonConcept         0.75
## 10 Pantera tigrsi    Pantera tigrsi Panthera tig AnAge                0.75
## #  with 46 more rows
…
